`biocmask` Usage Guide • biocmask
…
# visualizing the output as a tibble:
library(tibble)
summary |>
  assay("col_sums") |>
  as_tibble() |>
  add_column(type = rowData(summary)$gene_biotype, .before=1)

## # A tibble: 30 × 9
##    type        SRR1039508 SRR1039509 SRR1039512 SRR1039513 SRR1039516 SRR1039517
##    <chr>            <dbl>      <dbl>      <dbl>      <dbl>      <dbl>      <dbl>
##  1 protein_co…   19413626      45654          4       1188      96378          0
##  2 pseudogene    17741060      45864          4        462      38656          0
##  3 processed_…   23926011     133335          0       1049      64884          0
##  4 antisense     14360299     120060          4       1113      36267          0
##  5 lincRNA       23003444     206075       6038        626      81606          0
##  6 polymorphi…   29233398     125015       5618        803      88868          0
##  7 IG_V_pseud…   18114369     145078       7662        316      44385          0
##  8 IG_V_gene     20103401     170641       5579        256      92499          0
##  9 sense_over…     807285     147563       7869        339        491          0
## 10 sense_intr…     733916     149486       9443        202        502          0
## # ℹ 20 more rows
## # ℹ 2 more variables: SRR1039520 <dbl>, SRR1039521 <dbl>
…
